RV32I_verification.vcd
$date
	Sun May 17 12:42:58 2026
$end
$version
	Icarus Verilog
$end
$timescale
	1ps
$end
$scope module rv32i_tb $end
$var reg 1 ! clk $end
$var reg 1 " rst_n $end
$var integer 32 # i [31:0] $end
$scope module rv $end
$var wire 1 ! clk $end
$var wire 32 $ instr [31:0] $end
$var wire 1 " rst_n $end
$var wire 1 % zero_flag $end
$var wire 32 & write_data [31:0] $end
$var wire 5 ' rs2 [4:0] $end
$var wire 5 ( rs1 [4:0] $end
$var wire 32 ) read_data2 [31:0] $end
$var wire 32 * read_data1 [31:0] $end
$var wire 5 + rd [4:0] $end
$var wire 1 , overflow $end
$var wire 7 - opcode [6:0] $end
$var wire 1 . negative $end
$var wire 32 / mem_instr [31:0] $end
$var wire 32 0 mem_data [31:0] $end
$var wire 32 1 imm_out [31:0] $end
$var wire 7 2 funct7 [6:0] $end
$var wire 3 3 funct3 [2:0] $end
$var wire 1 4 carry_out $end
$var wire 32 5 alu_result [31:0] $end
$var wire 4 6 alu_op [3:0] $end
$var wire 32 7 alu_input_b [31:0] $end
$var wire 32 8 alu_input_a [31:0] $end
$var wire 1 9 RegWrite $end
$var wire 32 : PC_next [31:0] $end
$var wire 1 ; PCWrite $end
$var wire 2 < PCSource_ctrl [1:0] $end
$var wire 1 = MemWrite $end
$var wire 1 > MemToReg $end
$var wire 1 ? MemRead $end
$var wire 1 @ Jump $end
$var wire 1 A IRWrite $end
$var wire 1 B Branch $end
$var wire 3 C ALU_OP [2:0] $end
$var wire 2 D ALUSrcB_ctrl [1:0] $end
$var wire 2 E ALUSrcA_ctrl [1:0] $end
$var parameter 32 F XLEN $end
$var reg 32 G A [31:0] $end
$var reg 32 H ALUOut [31:0] $end
$var reg 32 I B [31:0] $end
$var reg 32 J IR [31:0] $end
$var reg 32 K MDR [31:0] $end
$var reg 32 L PC [31:0] $end
$var reg 1 M branch_taken $end
$scope module ac $end
$var wire 3 N funct3 [2:0] $end
$var wire 7 O funct7 [6:0] $end
$var wire 3 P ALU_OP [2:0] $end
$var parameter 4 Q ADD $end
$var parameter 4 R AND $end
$var parameter 4 S OR $end
$var parameter 4 T SLL $end
$var parameter 4 U SLT $end
$var parameter 4 V SRA $end
$var parameter 4 W SRL $end
$var parameter 4 X SUB $end
$var parameter 4 Y XOR $end
$var reg 4 Z alu_op [3:0] $end
$upscope $end
$scope module alu $end
$var wire 32 [ a [31:0] $end
$var wire 32 \ and_sol [31:0] $end
$var wire 32 ] b [31:0] $end
$var wire 1 ^ c_in $end
$var wire 32 _ not_sol [31:0] $end
$var wire 4 ` op_code [3:0] $end
$var wire 32 a or_sol [31:0] $end
$var wire 1 b overflow_wire $end
$var wire 32 c xor_sol [31:0] $end
$var wire 1 d sub $end
$var wire 32 e right_shift_logical_sol [31:0] $end
$var wire 32 f right_shift_arithmetic_sol [31:0] $end
$var wire 32 g left_shift_logical_sol [31:0] $end
$var wire 32 h inc_sol [31:0] $end
$var wire 32 i dec_sol [31:0] $end
$var wire 1 j carry_mux $end
$var wire 32 k b_mux [31:0] $end
$var wire 32 l add_sol [31:0] $end
$var wire 1 m add_out $end
$var wire 32 n SLT [31:0] $end
$var parameter 32 o WIDTH $end
$var reg 32 p answer [31:0] $end
$var reg 1 4 c_out $end
$var reg 1 . negative $end
$var reg 1 , overflow $end
$var reg 1 % zero $end
$scope module f1 $end
$var wire 32 q a [31:0] $end
$var wire 32 r b [31:0] $end
$var wire 1 j c_in $end
$var wire 32 s sum [31:0] $end
$var wire 1 m c_out $end
$var parameter 32 t WIDTH $end
$upscope $end
$upscope $end
$scope module cu $end
$var wire 1 M branch_taken $end
$var wire 1 ! clk $end
$var wire 7 u op_code [6:0] $end
$var wire 1 " rst_n $end
$var parameter 4 v BRANCH_EX $end
$var parameter 4 w DECODE $end
$var parameter 4 x EXEC_I $end
$var parameter 4 y EXEC_R $end
$var parameter 4 z FETCH $end
$var parameter 4 { JALR_EX $end
$var parameter 4 | JUMP_EX $end
$var parameter 4 } MEM_ADDR $end
$var parameter 4 ~ MEM_READ $end
$var parameter 4 !" MEM_WB $end
$var parameter 4 "" MEM_WRITE $end
$var parameter 4 #" PC_INC $end
$var reg 2 $" ALUSrcA_ctrl [1:0] $end
$var reg 2 %" ALUSrcB_ctrl [1:0] $end
$var reg 3 &" ALU_OP [2:0] $end
$var reg 1 B Branch $end
$var reg 1 A IRWrite $end
$var reg 1 @ Jump $end
$var reg 1 ? MemRead $end
$var reg 1 > MemToReg $end
$var reg 1 = MemWrite $end
$var reg 2 '" PCSource_ctrl [1:0] $end
$var reg 1 ; PCWrite $end
$var reg 1 9 RegWrite $end
$var reg 4 (" current_state [3:0] $end
$var reg 4 )" next_state [3:0] $end
$upscope $end
$scope module dm $end
$var wire 1 ? MemRead $end
$var wire 1 = MemWrite $end
$var wire 32 *" addr [31:0] $end
$var wire 1 ! clk $end
$var wire 32 +" write_data [31:0] $end
$var parameter 32 ," ADDR_WIDTH $end
$var parameter 32 -" DEPTH $end
$var parameter 32 ." XLEN $end
$var reg 32 /" read_data [31:0] $end
$upscope $end
$scope module ig $end
$var wire 32 0" instr [31:0] $end
$var wire 7 1" op_code [6:0] $end
$var parameter 32 2" XLEN $end
$var reg 32 3" imm_out [31:0] $end
$upscope $end
$scope module imem $end
$var wire 32 4" addr [31:0] $end
$var wire 32 5" instr [31:0] $end
$var parameter 32 6" ADDR_WIDTH $end
$var parameter 32 7" DEPTH $end
$var parameter 32 8" XLEN $end
$upscope $end
$scope module rf $end
$var wire 1 ! clk $end
$var wire 5 9" rd [4:0] $end
$var wire 1 9 reg_write $end
$var wire 5 :" rs1 [4:0] $end
$var wire 5 ;" rs2 [4:0] $end
$var wire 1 " rst_n $end
$var wire 32 <" write_data [31:0] $end
$var wire 32 =" read_data2 [31:0] $end
$var wire 32 >" read_data1 [31:0] $end
$var parameter 32 ?" ADDR_WIDTH $end
$var parameter 32 @" DATA_WIDTH $end
$var parameter 32 A" REG_DEPTH $end
$scope begin $ivl_for_loop0 $end
$var integer 32 B" i [31:0] $end
$upscope $end
$upscope $end
$upscope $end
$upscope $end
$scope module rv32i_tb $end
$scope module rv $end
$scope module rf $end
$var reg 32 C" \regs[0] [31:0] $end
$upscope $end
$upscope $end
$upscope $end
$scope module rv32i_tb $end
$scope module rv $end
$scope module rf $end
$var reg 32 D" \regs[1] [31:0] $end
$upscope $end
$upscope $end
$upscope $end
$scope module rv32i_tb $end
$scope module rv $end
$scope module rf $end
$var reg 32 E" \regs[2] [31:0] $end
$upscope $end
$upscope $end
$upscope $end
$scope module rv32i_tb $end
$scope module rv $end
$scope module rf $end
$var reg 32 F" \regs[3] [31:0] $end
$upscope $end
$upscope $end
$upscope $end
$scope module rv32i_tb $end
$scope module rv $end
$scope module rf $end
$var reg 32 G" \regs[4] [31:0] $end
$upscope $end
$upscope $end
$upscope $end
$scope module rv32i_tb $end
$scope module rv $end
$scope module rf $end
$var reg 32 H" \regs[5] [31:0] $end
$upscope $end
$upscope $end
$upscope $end
$scope module rv32i_tb $end
$scope module rv $end
$scope module rf $end
$var reg 32 I" \regs[6] [31:0] $end
$upscope $end
$upscope $end
$upscope $end
$scope module rv32i_tb $end
$scope module rv $end
$scope module rf $end
$var reg 32 J" \regs[7] [31:0] $end
$upscope $end
$upscope $end
$upscope $end
$scope module rv32i_tb $end
$scope module rv $end
$scope module rf $end
$var reg 32 K" \regs[8] [31:0] $end
$upscope $end
$upscope $end
$upscope $end
$scope module rv32i_tb $end
$scope module rv $end
$scope module rf $end
$var reg 32 L" \regs[9] [31:0] $end
$upscope $end
$upscope $end
$upscope $end
$scope module rv32i_tb $end
$scope module rv $end
$scope module rf $end
$var reg 32 M" \regs[10] [31:0] $end
$upscope $end
$upscope $end
$upscope $end
$scope module rv32i_tb $end
$scope module rv $end
$scope module rf $end
$var reg 32 N" \regs[11] [31:0] $end
$upscope $end
$upscope $end
$upscope $end
$scope module rv32i_tb $end
$scope module rv $end
$scope module rf $end
$var reg 32 O" \regs[12] [31:0] $end
$upscope $end
$upscope $end
$upscope $end
$scope module rv32i_tb $end
$scope module rv $end
$scope module rf $end
$var reg 32 P" \regs[13] [31:0] $end
$upscope $end
$upscope $end
$upscope $end
$scope module rv32i_tb $end
$scope module rv $end
$scope module rf $end
$var reg 32 Q" \regs[14] [31:0] $end
$upscope $end
$upscope $end
$upscope $end
$scope module rv32i_tb $end
$scope module rv $end
$scope module rf $end
$var reg 32 R" \regs[15] [31:0] $end
$upscope $end
$upscope $end
$upscope $end
$scope module rv32i_tb $end
$scope module rv $end
$scope module rf $end
$var reg 32 S" \regs[16] [31:0] $end
$upscope $end
$upscope $end
$upscope $end
$scope module rv32i_tb $end
$scope module rv $end
$scope module rf $end
$var reg 32 T" \regs[17] [31:0] $end
$upscope $end
$upscope $end
$upscope $end
$scope module rv32i_tb $end
$scope module rv $end
$scope module rf $end
$var reg 32 U" \regs[18] [31:0] $end
$upscope $end
$upscope $end
$upscope $end
$scope module rv32i_tb $end
$scope module rv $end
$scope module rf $end
$var reg 32 V" \regs[19] [31:0] $end
$upscope $end
$upscope $end
$upscope $end
$scope module rv32i_tb $end
$scope module rv $end
$scope module rf $end
$var reg 32 W" \regs[20] [31:0] $end
$upscope $end
$upscope $end
$upscope $end
$scope module rv32i_tb $end
$scope module rv $end
$scope module rf $end
$var reg 32 X" \regs[21] [31:0] $end
$upscope $end
$upscope $end
$upscope $end
$scope module rv32i_tb $end
$scope module rv $end
$scope module rf $end
$var reg 32 Y" \regs[22] [31:0] $end
$upscope $end
$upscope $end
$upscope $end
$scope module rv32i_tb $end
$scope module rv $end
$scope module rf $end
$var reg 32 Z" \regs[23] [31:0] $end
$upscope $end
$upscope $end
$upscope $end
$scope module rv32i_tb $end
$scope module rv $end
$scope module rf $end
$var reg 32 [" \regs[24] [31:0] $end
$upscope $end
$upscope $end
$upscope $end
$scope module rv32i_tb $end
$scope module rv $end
$scope module rf $end
$var reg 32 \" \regs[25] [31:0] $end
$upscope $end
$upscope $end
$upscope $end
$scope module rv32i_tb $end
$scope module rv $end
$scope module rf $end
$var reg 32 ]" \regs[26] [31:0] $end
$upscope $end
$upscope $end
$upscope $end
$scope module rv32i_tb $end
$scope module rv $end
$scope module rf $end
$var reg 32 ^" \regs[27] [31:0] $end
$upscope $end
$upscope $end
$upscope $end
$scope module rv32i_tb $end
$scope module rv $end
$scope module rf $end
$var reg 32 _" \regs[28] [31:0] $end
$upscope $end
$upscope $end
$upscope $end
$scope module rv32i_tb $end
$scope module rv $end
$scope module rf $end
$var reg 32 `" \regs[29] [31:0] $end
$upscope $end
$upscope $end
$upscope $end
$scope module rv32i_tb $end
$scope module rv $end
$scope module rf $end
$var reg 32 a" \regs[30] [31:0] $end
$upscope $end
$upscope $end
$upscope $end
$scope module rv32i_tb $end
$scope module rv $end
$scope module rf $end
$var reg 32 b" \regs[31] [31:0] $end
$upscope $end
$upscope $end
$upscope $end
$enddefinitions $end
$comment Show the parameter values. $end
$dumpall
b100000 A"
b100000 @"
b101 ?"
b100000 8"
b100000000 7"
b1000 6"
b100000 2"
b100000 ."
b100000000 -"
b1000 ,"
b1011 #"
b111 ""
b110 !"
b101 ~
b100 }
b1001 |
b1010 {
b0 z
b10 y
b11 x
b1 w
b1000 v
b100000 t
b100000 o
b110 Y
b1 X
b1001 W
b1010 V
b1011 U
b1000 T
b101 S
b100 R
b0 Q
b100000 F
$end
#0
$dumpvars
bx b"
bx a"
bx `"
bx _"
bx ^"
bx ]"
bx \"
bx ["
bx Z"
bx Y"
bx X"
bx W"
bx V"
bx U"
bx T"
bx S"
bx R"
bx Q"
bx P"
bx O"
bx N"
bx M"
bx L"
bx K"
bx J"
bx I"
bx H"
bx G"
bx F"
bx E"
bx D"
bx C"
bx B"
bx >"
bx ="
bx <"
bx ;"
bx :"
bx 9"
bx 5"
bx 4"
bx 3"
bx 1"
bx 0"
b0 /"
bx +"
bx *"
b0 )"
bx ("
b0 '"
b0 &"
b0 %"
b0 $"
bx u
bx s
bx r
bx q
b0 p
b0x n
xm
bx l
bx k
xj
bx i
bx h
bx g
bx f
bx e
xd
bx c
xb
bx a
bx `
bx _
0^
bx ]
bx \
bx [
bx Z
b0 P
bx O
bx N
0M
bx L
bx K
bx J
bx I
bx H
bx G
b0 E
b0 D
b0 C
0B
0A
0@
0?
0>
0=
b0 <
0;
b0 :
09
bx 8
bx 7
bx 6
b0 5
04
bx 3
bx 2
bx 1
b0 0
bx /
0.
bx -
0,
bx +
bx *
bx )
bx (
bx '
bx &
1%
bx $
b100000 #
0"
0!
$end
#5000
0b
b0 l
b0 s
0m
b0 :
b0 *
b0 >"
b0 )
b0 ="
0j
0.
1%
0,
04
b0 5
b0 p
b0 k
b0 r
b0 g
b0 e
b0 f
b0 n
1M
0d
b0 6
b0 Z
b0 `
b0 \
b0 a
b0 c
b11111111111111111111111111111111 _
b101000000000000010010011 /
b101000000000000010010011 5"
b1 )"
1A
b0 &
b0 <"
b0 7
b0 ]
b0 -
b0 u
b0 +
b0 9"
b0 3
b0 N
b0 (
b0 :"
b0 '
b0 ;"
b0 2
b0 O
b0 1
b0 3"
b0 1"
b1 h
b11111111111111111111111111111111 i
b0 8
b0 [
b0 q
b0 b"
b0 a"
b0 `"
b0 _"
b0 ^"
b0 ]"
b0 \"
b0 ["
b0 Z"
b0 Y"
b0 X"
b0 W"
b0 V"
b0 U"
b0 T"
b0 S"
b0 R"
b0 Q"
b0 P"
b0 O"
b0 N"
b0 M"
b0 L"
b0 K"
b0 J"
b0 I"
b0 H"
b0 G"
b0 F"
b0 E"
b0 D"
b0 C"
b0 ("
b0 H
b0 *"
b0 I
b0 +"
b0 G
b0 K
b0 $
b0 J
b0 0"
b0 L
b0 4"
b100000 B"
1!
#10000
0!
1"
#15000
0M
b1010 :
0%
b1010 5
b1010 p
b1010 l
b1010 s
b1010 a
b1010 c
b1010 k
b1010 r
b1 n
b1010 7
b1010 ]
b10011 -
b10011 u
b1 +
b1 9"
b1010 '
b1010 ;"
b1010 1
b1010 3"
b10011 1"
b11 )"
b11 C
b11 P
b11 &"
b10 D
b10 %"
0A
b101000000000000010010011 $
b101000000000000010010011 J
b101000000000000010010011 0"
b1 ("
1!
#20000
0!
#25000
b1 E
b1 $"
b0 C
b0 P
b0 &"
b10 D
b10 %"
b1011 )"
b1010 &
b1010 <"
b11 ("
b1010 H
b1010 *"
1!
#30000
0!
#35000
b100 :
b100 l
b100 s
b100 5
b100 p
b100 a
b100 c
b100 k
b100 r
b100 7
b100 ]
b0 )"
1;
b11 C
b11 P
b11 &"
19
b1 D
b1 %"
b0 E
b0 $"
b1011 ("
1!
#40000
0!
#45000
b100 :
b0 k
b0 r
b100 e
b100 f
b100 l
b100 s
b0 7
b0 ]
b0 \
b100 c
b11111111111111111111111111111011 _
b100 5
b100 p
b0 n
b10100000000000100010011 /
b10100000000000100010011 5"
1A
b0 C
b0 P
b0 &"
b0 D
b0 %"
09
0;
b1 )"
b100 &
b100 <"
b101 h
b11 i
b100 g
b100 8
b100 [
b100 q
b1010 D"
b0 ("
b100 H
b100 *"
b100 L
b100 4"
1!
#50000
0!
#55000
b1001 :
b1001 l
b1001 s
b1001 5
b1001 p
b100 \
b101 a
b1 c
b101 k
b101 r
b10000000 g
b0 e
b0 f
b1 n
b101 7
b101 ]
b10 +
b10 9"
b101 '
b101 ;"
b101 1
b101 3"
b11 )"
b11 C
b11 P
b11 &"
b10 D
b10 %"
0A
b10100000000000100010011 $
b10100000000000100010011 J
b10100000000000100010011 0"
b1 ("
1!
#60000
0!
#65000
b101 :
b101 l
b101 s
b0 \
b101 c
b11111111111111111111111111111111 _
b101 5
b101 p
b1 h
b11111111111111111111111111111111 i
b0 g
b0 8
b0 [
b0 q
b1 E
b1 $"
b0 C
b0 P
b0 &"
b10 D
b10 %"
b1011 )"
b1001 &
b1001 <"
b11 ("
b1001 H
b1001 *"
1!
#70000
0!
#75000
b1000 :
b100 a
b100 k
b100 r
b0 n
b1000 l
b1000 s
b100 7
b100 ]
b100 \
b0 c
b11111111111111111111111111111011 _
b1000 5
b1000 p
b101 h
b11 i
b1000000 g
b100 8
b100 [
b100 q
b101 &
b101 <"
b0 )"
1;
b11 C
b11 P
b11 &"
19
b1 D
b1 %"
b0 E
b0 $"
b101 H
b101 *"
b1011 ("
1!
#80000
0!
#85000
b1000 :
b0 k
b0 r
b1000 e
b1000 f
b1000 l
b1000 s
b0 7
b0 ]
b0 \
b1000 a
b1000 c
b11111111111111111111111111110111 _
b1000 5
b1000 p
b1100001111000110010011 /
b1100001111000110010011 5"
1A
b0 C
b0 P
b0 &"
b0 D
b0 %"
09
0;
b1 )"
b1000 &
b1000 <"
b1001 h
b111 i
b1000 g
b1000 8
b1000 [
b1000 q
b101 E"
b0 ("
b1000 H
b1000 *"
b1000 L
b1000 4"
1!
#90000
0!
#95000
b1011 :
b1011 l
b1011 s
b1011 5
b1011 p
b1011 a
b1011 c
b11 k
b11 r
b1000000 g
b1 e
b1 f
b11 7
b11 ]
b1010 *
b1010 >"
b11 +
b11 9"
b111 3
b111 N
b1 (
b1 :"
b11 '
b11 ;"
b11 1
b11 3"
b11 )"
b11 C
b11 P
b11 &"
b10 D
b10 %"
0A
b1100001111000110010011 $
b1100001111000110010011 J
b1100001111000110010011 0"
b1 ("
1!
#100000
0!
#105000
b1101 l
b1101 s
b10 :
b10 \
b1001 c
b11111111111111111111111111110101 _
0%
b10 5
b10 p
b1011 h
b1001 i
b1010000 g
b1010 8
b1010 [
b1010 q
b100 6
b100 Z
b100 `
b1 E
b1 $"
b0 C
b0 P
b0 &"
b10 D
b10 %"
b1011 )"
b1011 &
b1011 <"
b11 ("
b1011 H
b1011 *"
b1010 G
1!
#110000
0!
#115000
b1100 a
b100 k
b100 r
b0 e
b0 f
b1100 :
b1100 l
b1100 s
b100 7
b100 ]
b0 \
b1100 c
b11111111111111111111111111110111 _
b1100 5
b1100 p
b0 6
b0 Z
b0 `
b1001 h
b111 i
b10000000 g
b1000 8
b1000 [
b1000 q
b10 &
b10 <"
b0 )"
1;
b11 C
b11 P
b11 &"
19
b1 D
b1 %"
b0 E
b0 $"
b10 H
b10 *"
b1011 ("
1!
#120000
0!
#125000
1%
b0 :
b0 k
b0 r
b1100 e
b1100 f
b1100 l
b1100 s
b100 6
b100 Z
b100 `
b0 7
b0 ]
b0 \
b1100 c
b11111111111111111111111111110011 _
b0 5
b0 p
b100000010110001000010011 /
b100000010110001000010011 5"
b10 )
b10 ="
1A
b0 C
b0 P
b0 &"
b0 D
b0 %"
09
0;
b1 )"
b1100 &
b1100 <"
b1101 h
b1011 i
b1100 g
b1100 8
b1100 [
b1100 q
b10 F"
b0 ("
b1100 H
b1100 *"
b1100 L
b1100 4"
1!
#130000
0!
#135000
b10100 l
b10100 s
b1000 \
b100 c
b1000 k
b1000 r
b110000000000 g
b0 e
b0 f
b10100 :
b1000 7
b1000 ]
b101 *
b101 >"
b0 )
b0 ="
0%
b10100 5
b10100 p
1M
b0 6
b0 Z
b0 `
b0 &
b0 <"
b100 +
b100 9"
b110 3
b110 N
b10 (
b10 :"
b1000 '
b1000 ;"
b1000 1
b1000 3"
b11 )"
b11 C
b11 P
b11 &"
b10 D
b10 %"
0A
b0 H
b0 *"
b10 I
b10 +"
b100000010110001000010011 $
b100000010110001000010011 J
b100000010110001000010011 0"
b1 ("
1!
#140000
0!
#145000
b1101 l
b1101 s
b1101 :
b0 \
b1101 a
b1101 c
b11111111111111111111111111111010 _
b1 n
b1101 5
b1101 p
b110 h
b100 i
b10100000000 g
b101 8
b101 [
b101 q
b101 6
b101 Z
b101 `
b1011 )"
b1 E
b1 $"
b0 C
b0 P
b0 &"
b10 D
b10 %"
b10100 &
b10100 <"
b11 ("
b10100 H
b10100 *"
b0 I
b0 +"
b101 G
1!
#150000
0!
#155000
b10000 :
b100 k
b100 r
b10000 l
b10000 s
b100 7
b100 ]
b100 \
b1100 a
b1000 c
b11111111111111111111111111110011 _
b10000 5
b10000 p
b0 n
b0 6
b0 Z
b0 `
b1101 h
b1011 i
b11000000 g
b1100 8
b1100 [
b1100 q
b1101 &
b1101 <"
1;
b11 C
b11 P
b11 &"
19
b1 D
b1 %"
b0 E
b0 $"
b0 )"
b1101 H
b1101 *"
b1011 ("
1!
#160000
0!
#165000
b10000 :
b0 k
b0 r
b10000 l
b10000 s
b101 6
b101 Z
b101 `
b0 7
b0 ]
b0 \
b10000 a
b10000 c
b11111111111111111111111111101111 _
b10000 5
b10000 p
b111100001100001010010011 /
b111100001100001010010011 5"
b1 )"
1A
b0 C
b0 P
b0 &"
b0 D
b0 %"
09
0;
b10000 &
b10000 <"
b10001 h
b1111 i
b10000 g
b10000 e
b10000 f
b10000 8
b10000 [
b10000 q
b1101 G"
b0 ("
b10000 H
b10000 *"
b10000 L
b10000 4"
1!
#170000
0!
#175000
b11111 :
b11111 l
b11111 s
b11111 a
b11111 c
b1111 k
b1111 r
b10000000000000000000 g
b0 e
b0 f
b1111 7
b1111 ]
b1010 *
b1010 >"
b11111 5
b11111 p
0M
b0 6
b0 Z
b0 `
b101 +
b101 9"
b100 3
b100 N
b1 (
b1 :"
b1111 '
b1111 ;"
b1111 1
b1111 3"
b11 C
b11 P
b11 &"
b10 D
b10 %"
0A
b11 )"
b111100001100001010010011 $
b111100001100001010010011 J
b111100001100001010010011 0"
b1 ("
1!
#180000
0!
#185000
b101 :
b11001 l
b11001 s
b1010 \
b1111 a
b101 c
b11111111111111111111111111110101 _
b1 n
b101 5
b101 p
b1011 h
b1001 i
b1010000000000000000 g
b1010 8
b1010 [
b1010 q
b110 6
b110 Z
b110 `
b1 E
b1 $"
b0 C
b0 P
b0 &"
b10 D
b10 %"
b1011 )"
b11111 &
b11111 <"
b11 ("
b11111 H
b11111 *"
b1010 G
1!
#190000
0!
#195000
b100 k
b100 r
b1 e
b1 f
b10100 :
b10100 l
b10100 s
b100 7
b100 ]
b0 \
b10100 a
b10100 c
b11111111111111111111111111101111 _
b10100 5
b10100 p
b0 n
b0 6
b0 Z
b0 `
b10001 h
b1111 i
b100000000 g
b10000 8
b10000 [
b10000 q
b101 &
b101 <"
b0 )"
1;
b11 C
b11 P
b11 &"
19
b1 D
b1 %"
b0 E
b0 $"
b101 H
b101 *"
b1011 ("
1!
#200000
0!
#205000
b10100 :
b0 k
b0 r
b10100 e
b10100 f
b10100 l
b10100 s
b110 6
b110 Z
b110 `
b0 7
b0 ]
b0 \
b10100 c
b11111111111111111111111111101011 _
b10100 5
b10100 p
b100010001001100010011 /
b100010001001100010011 5"
1A
b0 C
b0 P
b0 &"
b0 D
b0 %"
09
0;
b1 )"
b10100 &
b10100 <"
b10101 h
b10011 i
b10100 g
b10100 8
b10100 [
b10100 q
b101 H"
b0 ("
b10100 H
b10100 *"
b10100 L
b10100 4"
1!
#210000
0!
#215000
b10101 :
b10101 l
b10101 s
b10101 a
b10101 c
b1 k
b1 r
b101000 g
b1010 e
b1010 f
b1 7
b1 ]
b101 *
b101 >"
b1010 )
b1010 ="
b10101 5
b10101 p
1M
b0 6
b0 Z
b0 `
b110 +
b110 9"
b1 3
b1 N
b10 (
b10 :"
b1 '
b1 ;"
b1 1
b1 3"
b11 )"
b11 C
b11 P
b11 &"
b10 D
b10 %"
0A
b100010001001100010011 $
b100010001001100010011 J
b100010001001100010011 0"
b1 ("
1!
#220000
0!
#225000
b110 l
b110 s
b1010 :
b1 \
b101 a
b100 c
b11111111111111111111111111111010 _
b1010 5
b1010 p
b110 h
b100 i
b1010 g
b10 e
b10 f
b101 8
b101 [
b101 q
b1000 6
b1000 Z
b1000 `
b1011 )"
b1 E
b1 $"
b0 C
b0 P
b0 &"
b10 D
b10 %"
b10101 &
b10101 <"
b11 ("
b10101 H
b10101 *"
b1010 I
b1010 +"
b101 G
1!
#230000
0!
#235000
b100 k
b100 r
b11000 :
b11000 l
b11000 s
b100 7
b100 ]
b100 \
b10100 a
b10000 c
b11111111111111111111111111101011 _
b11000 5
b11000 p
b0 6
b0 Z
b0 `
b10101 h
b10011 i
b101000000 g
b1 e
b1 f
b10100 8
b10100 [
b10100 q
b1010 &
b1010 <"
1;
b11 C
b11 P
b11 &"
19
b1 D
b1 %"
b0 E
b0 $"
b0 )"
b1010 H
b1010 *"
b1011 ("
1!
#240000
0!
#245000
b110000000000000 :
b1010 k
b1010 r
b0 e
b0 f
b100010 l
b100010 s
b1000 6
b1000 Z
b1000 `
b1010 7
b1010 ]
b1000 \
b11010 a
b10010 c
b11111111111111111111111111100111 _
b110000000000000 5
b110000000000000 p
b100001101001110010011 /
b100001101001110010011 5"
b1 )"
1A
b0 C
b0 P
b0 &"
b0 D
b0 %"
09
0;
b11000 &
b11000 <"
b11001 h
b10111 i
b110000000000000 g
b11000 8
b11000 [
b11000 q
b1010 I"
b0 ("
b11000 H
b11000 *"
b11000 L
b11000 4"
1!
#250000
0!
#255000
b11001 l
b11001 s
b11001 :
b1010 *
b1010 >"
b11001 5
b11001 p
b0 \
b11001 a
b11001 c
b1 k
b1 r
b110000 g
b1100 e
b1100 f
b0 6
b0 Z
b0 `
b1 7
b1 ]
b110000000000000 &
b110000000000000 <"
b111 +
b111 9"
b101 3
b101 N
b1 (
b1 :"
b11 C
b11 P
b11 &"
b10 D
b10 %"
0A
b11 )"
b110000000000000 H
b110000000000000 *"
b100001101001110010011 $
b100001101001110010011 J
b100001101001110010011 0"
b1 ("
1!
#260000
0!
#265000
b1011 l
b1011 s
b101 :
b1011 a
b1011 c
b11111111111111111111111111110101 _
b101 5
b101 p
b1011 h
b1001 i
b10100 g
b101 e
b101 f
b1010 8
b1010 [
b1010 q
b1001 6
b1001 Z
b1001 `
b1011 )"
b1 E
b1 $"
b0 C
b0 P
b0 &"
b10 D
b10 %"
b11001 &
b11001 <"
b11 ("
b11001 H
b11001 *"
b1010 G
1!
#270000
0!
#275000
b100 k
b100 r
b11100 :
b11100 l
b11100 s
b100 7
b100 ]
b11100 a
b11100 c
b11111111111111111111111111100111 _
b11100 5
b11100 p
b0 6
b0 Z
b0 `
b11001 h
b10111 i
b110000000 g
b1 e
b1 f
b11000 8
b11000 [
b11000 q
b101 &
b101 <"
1;
b11 C
b11 P
b11 &"
19
b1 D
b1 %"
b0 E
b0 $"
b0 )"
b101 H
b101 *"
b1011 ("
1!
#280000
0!
#285000
1%
b0 :
b11110 a
b1010 k
b1010 r
b0 e
b0 f
b100110 l
b100110 s
b1001 6
b1001 Z
b1001 `
b1010 7
b1010 ]
b1000 \
b10110 c
b11111111111111111111111111100011 _
b0 5
b0 p
b1000000000100001101010000010011 /
b1000000000100001101010000010011 5"
b1 )"
1A
b0 C
b0 P
b0 &"
b0 D
b0 %"
09
0;
b11100 &
b11100 <"
b11101 h
b11011 i
b111000000000000 g
b11100 8
b11100 [
b11100 q
b101 J"
b0 ("
b11100 H
b11100 *"
b11100 L
b11100 4"
1!
#290000
0!
#295000
b1 n
b10000011101 l
b10000011101 s
b10000011101 :
0%
b10000011101 5
b10000011101 p
b0 \
b10000011101 a
b10000011101 c
b10000000001 k
b10000000001 r
b111000 g
b1110 e
b1110 f
b0 6
b0 Z
b0 `
b10000000001 7
b10000000001 ]
b0 &
b0 <"
b1000 +
b1000 9"
b100000 2
b100000 O
b10000000001 1
b10000000001 3"
b11 C
b11 P
b11 &"
b10 D
b10 %"
0A
b11 )"
b0 H
b0 *"
b1000000000100001101010000010011 $
b1000000000100001101010000010011 J
b1000000000100001101010000010011 0"
b1 ("
1!
#300000
0!
#305000
b10000001011 l
b10000001011 s
b101 :
b10000001011 a
b10000001011 c
b11111111111111111111111111110101 _
b101 5
b101 p
b1011 h
b1001 i
b10100 g
b101 e
b101 f
b1010 8
b1010 [
b1010 q
b1010 6
b1010 Z
b1010 `
b1011 )"
b1 E
b1 $"
b0 C
b0 P
b0 &"
b10 D
b10 %"
b10000011101 &
b10000011101 <"
b11 ("
b10000011101 H
b10000011101 *"
1!
#310000
0!
#315000
b100 \
b100 k
b100 r
b0 n
b100000 :
b100000 l
b100000 s
b100 7
b100 ]
b11100 a
b11000 c
b11111111111111111111111111100011 _
b100000 5
b100000 p
b0 6
b0 Z
b0 `
b11101 h
b11011 i
b111000000 g
b1 e
b1 f
b11100 8
b11100 [
b11100 q
b101 &
b101 <"
1;
b11 C
b11 P
b11 &"
19
b1 D
b1 %"
b0 E
b0 $"
b0 )"
b101 H
b101 *"
b1011 ("
1!
#320000
0!
#325000
1%
b0 :
b1010 k
b1010 r
b101010 l
b101010 s
b1010 6
b1010 Z
b1010 `
b1010 7
b1010 ]
b0 \
b101010 a
b101010 c
b11111111111111111111111111011111 _
b0 5
b0 p
b101000010010010010010011 /
b101000010010010010010011 5"
b1 )"
1A
b0 C
b0 P
b0 &"
b0 D
b0 %"
09
0;
b100000 &
b100000 <"
b100001 h
b11111 i
b1000000000000000 g
b0 e
b0 f
b100000 8
b100000 [
b100000 q
b101 K"
b0 ("
b100000 H
b100000 *"
b100000 L
b100000 4"
1!
#330000
0!
#335000
b101010 l
b101010 s
b101010 :
b101 *
b101 >"
b0 )
b0 ="
0%
b101010 5
b101010 p
b101010 a
b101010 c
b1010 k
b1010 r
b1000000000000000 g
b0 e
b0 f
0M
b0 6
b0 Z
b0 `
b1010 7
b1010 ]
b0 &
b0 <"
b1001 +
b1001 9"
b10 3
b10 N
b10 (
b10 :"
b1010 '
b1010 ;"
b0 2
b0 O
b1010 1
b1010 3"
b11 C
b11 P
b11 &"
b10 D
b10 %"
0A
b11 )"
b0 H
b0 *"
b101000010010010010010011 $
b101000010010010010010011 J
b101000010010010010010011 0"
b1 ("
1!
#340000
0!
